<?xml version="1.0" encoding="utf-8"?>
<!-- Generator: Adobe Illustrator 19.0.0, SVG Export Plug-In . SVG Version: 6.00 Build 0)  -->
<svg version="1.1" id="Layer_1" xmlns="http://www.w3.org/2000/svg" xmlns:xlink="http://www.w3.org/1999/xlink" x="0px" y="0px"  width="52" height="52"
	 viewBox="-278 370 54 54" style="enable-background:new -278 370 54 54;" xml:space="preserve">
<style type="text/css">
	.st0{fill:#004674;}
</style>
<path id="XMLID_6_" class="st0" d="M-224.6,397.3l-6.6-8.7c-0.1-0.2-0.4-0.3-0.6-0.3h-7c-0.1,0-0.1-0.1-0.1-0.1v-7.6
	c0-0.4-0.3-0.7-0.7-0.7c0,0,0,0,0,0h-37.1c-0.4,0-0.7,0.3-0.7,0.7c0,0,0,0,0,0v28.4c0,0.4,0.3,0.7,0.7,0.7c0,0,0,0,0,0h3
	c0.4,0,0.7-0.3,0.7-0.6c0.4-3.8,3.7-6.5,7.4-6.2c3.3,0.3,5.9,2.9,6.2,6.2c0,0.4,0.3,0.6,0.7,0.6h12.7c0.4,0,0.7-0.3,0.7-0.6
	c0.3-3.8,3.7-6.5,7.4-6.2c3.3,0.3,5.9,2.9,6.2,6.2c0,0.4,0.4,0.6,0.7,0.6h5.8c0.4,0,0.7-0.3,0.7-0.7v0v-11.3
	C-224.5,397.6-224.6,397.4-224.6,397.3z M-258.2,398.9c-4,0-7.2-3.2-7.2-7.2c0-4,3.2-7.2,7.2-7.2c4,0,7.2,3.2,7.2,7.2c0,0,0,0,0,0
	C-251,395.7-254.2,398.9-258.2,398.9z M-227.1,397.6h-11.6c-0.1,0-0.2-0.1-0.2-0.2c0,0,0,0,0,0v-6.7c0-0.1,0.1-0.2,0.2-0.2h6.4
	c0.1,0,0.2,0,0.2,0.1l5.2,6.7c0.1,0.1,0,0.2,0,0.2C-227,397.6-227,397.6-227.1,397.6z M-254.9,387.8l1.8,1.8l-6.6,6.6l-3.6-3.5
	l1.8-1.8l1.8,1.8L-254.9,387.8z M-234.3,409.8c0,2.4-1.9,4.3-4.3,4.3c-2.4,0-4.3-1.9-4.3-4.3c0-2.4,1.9-4.3,4.3-4.3c0,0,0,0,0,0
	C-236.2,405.5-234.3,407.4-234.3,409.8L-234.3,409.8z M-262,409.8c0,2.4-1.9,4.3-4.3,4.3c-2.4,0-4.3-1.9-4.3-4.3
	c0-2.4,1.9-4.3,4.3-4.3c0,0,0,0,0,0C-263.9,405.5-262,407.4-262,409.8L-262,409.8z"/>
</svg>
