<?xml version="1.0" encoding="utf-8"?>
<!-- Generator: Adobe Illustrator 19.0.0, SVG Export Plug-In . SVG Version: 6.00 Build 0)  -->
<svg version="1.1" id="Layer_1" xmlns="http://www.w3.org/2000/svg" xmlns:xlink="http://www.w3.org/1999/xlink" x="0px" y="0px"
	 viewBox="4 -4 25 25" style="enable-background:new 4 -4 25 25;" xml:space="preserve">
<style type="text/css">
	.st0{fill:#0097BA;}
</style>
<g id="XMLID_2_">
	<g id="XMLID_5_">
		<path id="XMLID_24_" class="st0" d="M22.4,20.9c-1.5,0-2.7-0.5-4-0.9l-0.6-0.2c-1.1-0.4-2.1-0.9-3-1.4c-2.9-1.8-6.3-5.2-8.1-8.1
			c-0.6-0.9-1-1.9-1.4-3L5.1,6.7c-0.5-1.2-0.9-2.5-0.9-4c0-1.2,0.3-2.3,0.9-3.5c0.4-0.8,1.1-1.9,2.2-2.4C8-3.5,9.2-3.8,9.9-3.8
			c0.2,0,0.4,0,0.7,0.1c0.6,0.2,1,0.9,1.3,1.6l0.1,0l0.5,0.9c0.3,0.6,0.7,1.2,1,1.8c0,0.1,0.1,0.2,0.2,0.3c0.3,0.4,0.7,1,0.7,1.7
			c0,1-0.9,1.7-1.9,2.5c-0.3,0.2-0.8,0.6-1,0.9c0.1,0.2,0.2,0.4,0.3,0.6L12,6.8c1.5,2.8,3.5,4.7,6.2,6.3l0.3,0.2
			c0.1,0.1,0.4,0.2,0.6,0.3c0.2-0.2,0.6-0.7,0.9-1c0.8-1,1.5-1.9,2.5-1.9c0.7,0,1.3,0.4,1.7,0.7c0.1,0.1,0.2,0.1,0.3,0.2
			c0.6,0.3,1.2,0.7,1.8,1l1,0.5c0.7,0.4,1.4,0.7,1.6,1.4C29,14.7,29,15,29,15.2c0,0.7-0.3,2-0.6,2.7c-0.5,1.1-1.6,1.8-2.4,2.2
			C24.7,20.6,23.6,20.9,22.4,20.9z M9.8-1.9C9.3-1.9,8.4-1.7,8-1.5c-0.5,0.2-1,1-1.3,1.6C6.3,0.9,6.1,1.7,6.1,2.6
			c0,1.1,0.4,2.1,0.8,3.3l0.2,0.6c0.4,1,0.8,1.9,1.3,2.6c1.6,2.6,4.8,5.8,7.4,7.4c0.8,0.5,1.6,0.9,2.6,1.3L19,18
			c1.1,0.4,2.2,0.8,3.3,0.8c0.8,0,1.6-0.2,2.5-0.7c0.5-0.3,1.3-0.7,1.5-1.2l0,0c0.2-0.4,0.4-1.3,0.4-1.8c-0.2-0.1-0.5-0.3-0.6-0.3
			L26,14.7l-1-0.5c-0.6-0.3-1.3-0.7-1.9-1.1c-0.1-0.1-0.3-0.2-0.4-0.3c-0.1-0.1-0.3-0.2-0.5-0.3c-0.3,0.2-0.7,0.8-1,1.1
			c-0.8,0.9-1.4,1.8-2.3,1.8c-0.6,0-1.2-0.4-1.7-0.6L17,14.7c-3.1-1.7-5.3-3.9-7-7L9.9,7.5C9.6,7,9.3,6.4,9.3,5.8
			c0-0.9,0.8-1.6,1.8-2.3c0.4-0.3,0.9-0.8,1.1-1c0.1-0.1,0-0.3-0.1-0.4c-0.1-0.2-0.2-0.3-0.3-0.4c-0.4-0.7-0.7-1.3-1.1-1.9l-0.6-1.1
			C10.1-1.4,9.9-1.7,9.8-1.9z"/>
	</g>
</g>
</svg>
